{
    "-name": "G0",
    "terminalsymbols": [
        {
            "-name": "not",
            "-spell": "n"
        },
        {
            "-name": "false",
            "-spell": "f"
        },
        {
            "-name": "true",
            "-spell": "t"
        },
        {
            "-name": "id",
            "-spell": "i"
        },
        {
            "-name": "OR",
            "-spell": "+"
        },
        {
            "-name": "AND",
            "-spell": "*"
        },
        {
            "-name": "LPAREN",
            "-spell": "("
        },
        {
            "-name": "RPAREN",
            "-spell": ")"
        }
    ],
    "nonterminalsymbols": [
        {
            "-name": "E"
        },
        {
            "-name": "T"
        },
        {
            "-name": "F"
        },
        {
            "-name": "N"
        }
    ],
    "productions": [
        {
            "lhs": "E",
            "rhs": ["E", "OR", "T"]
        },
        {
            "lhs": "E",
            "rhs": ["T"]
        },
        {
            "lhs": "T",
            "rhs": ["T", "AND", "N"]
        },
        {
            "lhs": "T",
            "rhs": ["N"]
        },
        {
            "lhs": "N",
            "rhs": ["n", "F"]
        },
        {
            "lhs": "N",
            "rhs": ["F"]
        },
        {
            "lhs": "F",
            "rhs": ["f"]
        },
        {
            "lhs": "F",
            "rhs": ["t"]
        },
        {
            "lhs": "F",
            "rhs": ["i"]
        },
        {
            "lhs": "F",
            "rhs": ["LPAREN", "E", "RPAREN"]
        }
    ],
    "startsymbol": "E"
}