{
  "terminalsymbols": [
    {
      "-name": "ADD",
      "-spell": "+"
    }
  ],
  "productions": [
    {
      "lhs": "E",
      "rhs": [
        "ADD"
      ]
    }
  ],
  "-name": "G0",
  "startsymbol": "E",
  "nonterminalsymbols": [
    {
      "-name": "E"
    }
  ]
}